8.....4..72......9..4.........1.7..23.5...9...4...........8..7..17...............
.........8......2..7............53...1..7...6..32...8..6.5....9..4....3......9...
12..4......5..9.1...9...5.........7.7...52.9..3......2.9.6.......................
...57..3.1......2.7...234......8...4..7..4...49..................................
...1523........92..........1....47.8.......6............9...5.6.4.9.7............
1.........3..2...8..96..5....53..9...1..8...26....4...3......1...................
....................4.6..21.18......3..1.2..6......81.52..7.9...................2
...92......68.....19.......23..4.1....1...7....8.3........8..91..................
.6.5.4.3.1...9...8.........9...5...6...........................4...8...1.5.2.3.4.
7.....4...2..7..8...3..8......5..3...6..2..9...1.97..6...3.......................
....7..2.8.......6.1.2.5.....................3....85.1...3.2.8.4.......9.7.......
3..62..7....7...2...........5...81......4...8.........7.25......4....8........3..
33.62..7....7...2...........5...81......4...8.........7.25......4....8........3..
1...7..2.8.......6.1.2.5.....................3....85.1...3.2.8.4.......9.7.......